Country,GDP (constant 2005 US$),GDP per capita (constant 2005 US$),GNI (constant 2005 US$),GNI per capita (constant 2005 US$)
United States,1.30937260000000E+13,4.43079205848603E+04,1.32217760000000E+13,4.47412295781057E+04
Japan,4.57186744113041E+12,3.57811700525965E+04,4.67846871024931E+12,3.66154720500364E+04
Germany,2.86141027235418E+12,3.46966209167100E+04,2.88682875264271E+12,3.50048379463931E+04
United Kingdom,2.41894181818182E+12,4.00479059670070E+04,2.47827818181818E+12,4.10302764785554E+04
China,2.26859890411628E+12,1.74009672638011E+03,2.25249014558901E+12,1.72774073082334E+03
France,2.20367864693446E+12,3.48797263291899E+04,2.24220868051237E+12,3.54895779645550E+04
Italy,1.85351245218256E+12,3.19739339439793E+04,1.85556945653526E+12,3.20094182058832E+04
Canada,1.16414424822578E+12,3.60282324902754E+04,1.14019475160918E+12,3.52870373733962E+04
Spain,1.15727645815197E+12,2.65107174533426E+04,1.14053973386395E+12,2.61273150557834E+04
"Korea, Rep.",8.98137194716188E+11,1.86575212532106E+04,8.91117682193836E+11,1.85117008764982E+04
Brazil,8.92103187643773E+11,4.73316418107253E+03,8.56742523825172E+11,4.54555379056692E+03
Mexico,8.66346483685297E+11,7.89396823375653E+03,8.50653641055680E+11,7.75097832896857E+03
India,8.34214699568140E+11,7.29000727040133E+02,8.28315924677460E+11,7.23845925540977E+02
Russian Federation,7.64017107992392E+11,5.32347387655593E+03,7.45490780702437E+11,5.19438721301805E+03
Australia,6.93075477371824E+11,3.39829504271591E+04,6.67298902420689E+11,3.27190706660859E+04
